alabaster==0.7.10
appnope==0.1.0
Babel==2.5.1
backports-abc==0.5
backports.functools-lru-cache==1.4
backports.shutil-get-terminal-size==1.0.0
bleach==2.1.1
certifi==2017.11.5
chardet==3.0.4
configparser==3.5.0
cycler==0.10.0
decorator==4.1.2
docutils==0.14
entrypoints==0.2.3
enum34==1.1.6
functools32==3.2.3.post2
futures==3.1.1
html5lib==1.0b10
idna==2.6
imagesize==0.7.1
ipykernel==4.6.1
ipyparallel==6.0.2
ipython==5.5.0
ipython-genutils==0.2.0
ipywidgets==7.0.4
Jinja2==2.10
jsonschema==2.6.0
jupyter-client==5.1.0
jupyter-core==4.4.0
MarkupSafe==1.0
matplotlib==2.1.0
mistune==0.8.1
nbconvert==5.3.1
nbformat==4.4.0
nose==1.3.7
notebook==5.2.1
numpy==1.13.3
pandas==0.20.3
pandocfilters==1.4.2
pathlib2==2.3.0
pexpect==4.3.0
pickleshare==0.7.4
prompt-toolkit==1.0.15
ptyprocess==0.5.2
Pygments==2.2.0
pyparsing==2.2.0
python-dateutil==2.6.1
pytz==2017.3
pyzmq==16.0.3
qtconsole==4.3.1
requests==2.18.4
scandir==1.6
scikit-learn==0.19.0
simplegeneric==0.8.1
singledispatch==3.4.0.3
six==1.11.0
sklearn==0.0
snowballstemmer==1.2.1
Sphinx==1.6.5
sphinxcontrib-websupport==1.0.1
subprocess32==3.2.7
terminado==0.6
testpath==0.3.1
tornado==4.5.2
traitlets==4.3.2
typing==3.6.2
urllib3==1.22
wcwidth==0.1.7
webencodings==0.5.1
widgetsnbextension==3.0.7
