alabaster==0.7.10
appnope==0.1.0
Babel==2.5.1
bleach==2.1.1
certifi==2017.11.5
chardet==3.0.4
cycler==0.10.0
decorator==4.1.2
docutils==0.14
entrypoints==0.2.3
html5lib==1.0b10
idna==2.6
imagesize==0.7.1
ipykernel==4.6.1
ipyparallel==6.0.2
ipython==6.2.1
ipython-genutils==0.2.0
ipywidgets==7.0.5
jedi==0.11.0
Jinja2==2.10
jsonschema==2.6.0
jupyter-client==5.1.0
jupyter-core==4.4.0
jupyterlab==0.29.2
jupyterlab-launcher==0.5.5
MarkupSafe==1.0
matplotlib==2.1.0
mistune==0.8.1
nbconvert==5.3.1
nbformat==4.4.0
nose==1.3.7
notebook==5.2.2
numpy==1.13.3
pandas==0.21.0
pandocfilters==1.4.2
parso==0.1.0
pexpect==4.3.0
pickleshare==0.7.4
prompt-toolkit==1.0.15
ptyprocess==0.5.2
Pygments==2.2.0
pyparsing==2.2.0
python-dateutil==2.6.1
pytz==2017.3
pyzmq==16.0.3
qtconsole==4.3.1
requests==2.18.4
scikit-learn==0.19.1
scipy==1.0.0
simplegeneric==0.8.1
six==1.11.0
sklearn==0.0
snowballstemmer==1.2.1
Sphinx==1.6.5
sphinxcontrib-websupport==1.0.1
terminado==0.8.1
testpath==0.3.1
tornado==4.5.2
traitlets==4.3.2
urllib3==1.22
wcwidth==0.1.7
webencodings==0.5.1
widgetsnbextension==3.0.8
